%YAML 1.1
%TAG !u! tag:unity3d.com,2011:
--- !u!95 &2706489995595894517
Animator:
  serializedVersion: 3
  m_ObjectHideFlags: 0
  m_CorrespondingSourceObject: {fileID: 0}
  m_PrefabInstance: {fileID: 0}
  m_PrefabAsset: {fileID: 0}
  m_GameObject: {fileID: 3643492289641511913}
  m_Enabled: 1
  m_Avatar: {fileID: 0}
  m_Controller: {fileID: 22100000, guid: 9e650fe8b386ce840ac803ce2f91a8f2, type: 2}
  m_CullingMode: 0
  m_UpdateMode: 0
  m_ApplyRootMotion: 0
  m_LinearVelocityBlending: 0
  m_WarningMessage: 
  m_HasTransformHierarchy: 1
  m_AllowConstantClipSamplingOptimization: 1
  m_KeepAnimatorControllerStateOnDisable: 0
--- !u!1001 &3643492289641545033
PrefabInstance:
  m_ObjectHideFlags: 0
  serializedVersion: 2
  m_Modification:
    m_TransformParent: {fileID: 8025111837215568869}
    m_Modifications:
    - target: {fileID: 100000, guid: 1ff5b7eb725fd824abd789f969a08ae8, type: 3}
      propertyPath: m_Name
      value: panzerfaust
      objectReference: {fileID: 0}
    - target: {fileID: 400000, guid: 1ff5b7eb725fd824abd789f969a08ae8, type: 3}
      propertyPath: m_RootOrder
      value: 0
      objectReference: {fileID: 0}
    - target: {fileID: 400000, guid: 1ff5b7eb725fd824abd789f969a08ae8, type: 3}
      propertyPath: m_LocalPosition.x
      value: 0
      objectReference: {fileID: 0}
    - target: {fileID: 400000, guid: 1ff5b7eb725fd824abd789f969a08ae8, type: 3}
      propertyPath: m_LocalPosition.y
      value: 0
      objectReference: {fileID: 0}
    - target: {fileID: 400000, guid: 1ff5b7eb725fd824abd789f969a08ae8, type: 3}
      propertyPath: m_LocalPosition.z
      value: 0
      objectReference: {fileID: 0}
    - target: {fileID: 400000, guid: 1ff5b7eb725fd824abd789f969a08ae8, type: 3}
      propertyPath: m_LocalRotation.w
      value: 1
      objectReference: {fileID: 0}
    - target: {fileID: 400000, guid: 1ff5b7eb725fd824abd789f969a08ae8, type: 3}
      propertyPath: m_LocalRotation.x
      value: -0
      objectReference: {fileID: 0}
    - target: {fileID: 400000, guid: 1ff5b7eb725fd824abd789f969a08ae8, type: 3}
      propertyPath: m_LocalRotation.y
      value: -0
      objectReference: {fileID: 0}
    - target: {fileID: 400000, guid: 1ff5b7eb725fd824abd789f969a08ae8, type: 3}
      propertyPath: m_LocalRotation.z
      value: -0
      objectReference: {fileID: 0}
    - target: {fileID: 400000, guid: 1ff5b7eb725fd824abd789f969a08ae8, type: 3}
      propertyPath: m_LocalEulerAnglesHint.x
      value: 0
      objectReference: {fileID: 0}
    - target: {fileID: 400000, guid: 1ff5b7eb725fd824abd789f969a08ae8, type: 3}
      propertyPath: m_LocalEulerAnglesHint.y
      value: 0
      objectReference: {fileID: 0}
    - target: {fileID: 400000, guid: 1ff5b7eb725fd824abd789f969a08ae8, type: 3}
      propertyPath: m_LocalEulerAnglesHint.z
      value: 0
      objectReference: {fileID: 0}
    m_RemovedComponents: []
  m_SourcePrefab: {fileID: 100100000, guid: 1ff5b7eb725fd824abd789f969a08ae8, type: 3}
--- !u!1 &3643492289641511913 stripped
GameObject:
  m_CorrespondingSourceObject: {fileID: 100000, guid: 1ff5b7eb725fd824abd789f969a08ae8, type: 3}
  m_PrefabInstance: {fileID: 3643492289641545033}
  m_PrefabAsset: {fileID: 0}
--- !u!1001 &6959916401749479690
PrefabInstance:
  m_ObjectHideFlags: 0
  serializedVersion: 2
  m_Modification:
    m_TransformParent: {fileID: 0}
    m_Modifications:
    - target: {fileID: -4497458905777177765, guid: a8e3b71e34be6414f9096610e7f11264, type: 3}
      propertyPath: animator
      value: 
      objectReference: {fileID: 2706489995595894517}
    - target: {fileID: -3235111798186290254, guid: a8e3b71e34be6414f9096610e7f11264, type: 3}
      propertyPath: weapon
      value: 
      objectReference: {fileID: 11400000, guid: 368512f4997dbde46a7e5fafcd227b0e, type: 2}
    - target: {fileID: 4744695162016007859, guid: a8e3b71e34be6414f9096610e7f11264, type: 3}
      propertyPath: m_RootOrder
      value: 0
      objectReference: {fileID: 0}
    - target: {fileID: 4744695162016007859, guid: a8e3b71e34be6414f9096610e7f11264, type: 3}
      propertyPath: m_LocalPosition.x
      value: 0.563
      objectReference: {fileID: 0}
    - target: {fileID: 4744695162016007859, guid: a8e3b71e34be6414f9096610e7f11264, type: 3}
      propertyPath: m_LocalPosition.y
      value: 0.069
      objectReference: {fileID: 0}
    - target: {fileID: 4744695162016007859, guid: a8e3b71e34be6414f9096610e7f11264, type: 3}
      propertyPath: m_LocalPosition.z
      value: -0.2
      objectReference: {fileID: 0}
    - target: {fileID: 4744695162016007859, guid: a8e3b71e34be6414f9096610e7f11264, type: 3}
      propertyPath: m_LocalRotation.w
      value: 0.8852314
      objectReference: {fileID: 0}
    - target: {fileID: 4744695162016007859, guid: a8e3b71e34be6414f9096610e7f11264, type: 3}
      propertyPath: m_LocalRotation.x
      value: 0
      objectReference: {fileID: 0}
    - target: {fileID: 4744695162016007859, guid: a8e3b71e34be6414f9096610e7f11264, type: 3}
      propertyPath: m_LocalRotation.y
      value: -0.465151
      objectReference: {fileID: 0}
    - target: {fileID: 4744695162016007859, guid: a8e3b71e34be6414f9096610e7f11264, type: 3}
      propertyPath: m_LocalRotation.z
      value: 0
      objectReference: {fileID: 0}
    - target: {fileID: 4744695162016007859, guid: a8e3b71e34be6414f9096610e7f11264, type: 3}
      propertyPath: m_LocalEulerAnglesHint.x
      value: 0
      objectReference: {fileID: 0}
    - target: {fileID: 4744695162016007859, guid: a8e3b71e34be6414f9096610e7f11264, type: 3}
      propertyPath: m_LocalEulerAnglesHint.y
      value: -55.44
      objectReference: {fileID: 0}
    - target: {fileID: 4744695162016007859, guid: a8e3b71e34be6414f9096610e7f11264, type: 3}
      propertyPath: m_LocalEulerAnglesHint.z
      value: 0
      objectReference: {fileID: 0}
    - target: {fileID: 8013779716005720571, guid: a8e3b71e34be6414f9096610e7f11264, type: 3}
      propertyPath: m_Name
      value: Panzerfaust Variant
      objectReference: {fileID: 0}
    m_RemovedComponents:
    - {fileID: 6469372276741193381, guid: a8e3b71e34be6414f9096610e7f11264, type: 3}
  m_SourcePrefab: {fileID: 100100000, guid: a8e3b71e34be6414f9096610e7f11264, type: 3}
--- !u!4 &8025111837215568869 stripped
Transform:
  m_CorrespondingSourceObject: {fileID: 1137294858482180847, guid: a8e3b71e34be6414f9096610e7f11264, type: 3}
  m_PrefabInstance: {fileID: 6959916401749479690}
  m_PrefabAsset: {fileID: 0}
