%YAML 1.1
%TAG !u! tag:unity3d.com,2011:
--- !u!221 &22100000
AnimatorOverrideController:
  m_ObjectHideFlags: 0
  m_CorrespondingSourceObject: {fileID: 0}
  m_PrefabInstance: {fileID: 0}
  m_PrefabAsset: {fileID: 0}
  m_Name: Panzerfaust
  m_Controller: {fileID: 9100000, guid: 197421b22d99e614d830cf6de49692b7, type: 2}
  m_Clips:
  - m_OriginalClip: {fileID: 1827226128182048838, guid: 41036152f7bc73243bd06436403bf2f2, type: 3}
    m_OverrideClip: {fileID: 1073168909204984403, guid: fe25a630e1ffe6d438a7a5c842e03014, type: 3}
  - m_OriginalClip: {fileID: -3100369314251171874, guid: 41036152f7bc73243bd06436403bf2f2, type: 3}
    m_OverrideClip: {fileID: -3100369314251171874, guid: fe25a630e1ffe6d438a7a5c842e03014, type: 3}
  - m_OriginalClip: {fileID: 229770723416056496, guid: 41036152f7bc73243bd06436403bf2f2, type: 3}
    m_OverrideClip: {fileID: 2340889625014559198, guid: fe25a630e1ffe6d438a7a5c842e03014, type: 3}
  - m_OriginalClip: {fileID: -998496362607748373, guid: 41036152f7bc73243bd06436403bf2f2, type: 3}
    m_OverrideClip: {fileID: -4579541417933013020, guid: fe25a630e1ffe6d438a7a5c842e03014, type: 3}
